<?xml version="1.0" encoding="utf-8"?>
<!-- Generator: Adobe Illustrator 20.0.0, SVG Export Plug-In . SVG Version: 6.00 Build 0)  -->
<svg version="1.1" id="Layer_1" xmlns="http://www.w3.org/2000/svg" xmlns:xlink="http://www.w3.org/1999/xlink" x="0px" y="0px"
	 viewBox="0 0 361.7 136" style="enable-background:new 0 0 361.7 136;" xml:space="preserve">
<style type="text/css">
	.st0{clip-path:url(#SVGID_2_);fill:#616160;}
	.st1{clip-path:url(#SVGID_2_);fill:#EAE44C;}
</style>
<g>
	<defs>
		<rect id="SVGID_1_" width="361.7" height="136"/>
	</defs>
	<clipPath id="SVGID_2_">
		<use xlink:href="#SVGID_1_"  style="overflow:visible;"/>
	</clipPath>
	<path class="st0" d="M12.2,41.8c-3,0-3.1,0.2-3.1,3.1c0,11.6,6.8,21.5,19.1,21.5c3.8,0,7-1.1,10.6-5.6c1.1-0.3,2,0.3,2.1,1.4
		C37,69.9,28.8,72.8,22.8,72.8c-7.5,0-13.3-3.2-16.7-7.6c-3.5-4.5-4.8-9.9-4.8-15c0-14.1,9.3-26,23.1-26c9.9,0,16.3,6.8,16.3,13.7
		c0,1.6-0.2,2.5-0.5,3c-0.3,0.7-2,0.8-6.8,0.8H12.2z M19.3,38.3c8.5,0,11-0.5,12-1.1c0.4-0.2,0.7-0.7,0.7-2.2c0-3.2-2.2-7.2-8.9-7.2
		c-6.8,0-12.7,6.2-12.8,10c0,0.2,0,0.6,0.8,0.6H19.3z"/>
	<path class="st0" d="M51.3,38.2c0-4.5,0-5.1-3.1-7.1l-1-0.7c-0.5-0.5-0.5-1.7,0.1-2.1c2.6-0.9,9.2-3.9,11.5-5.6
		c0.5,0,1,0.2,1.3,0.8c-0.2,2.6-0.2,4.4-0.2,5.4c0,0.7,0.5,1.3,1.3,1.3c4.8-3,10.2-5.9,16.1-5.9c9.6,0,13.5,6.6,13.5,14.3v19.8
		c0,8.3,0.2,9.4,4.4,10l2.5,0.3c0.8,0.6,0.6,2.5-0.2,2.9c-3.5-0.2-6.8-0.3-10.8-0.3c-4.1,0-7.6,0.1-10.7,0.3c-0.8-0.3-1-2.3-0.2-2.9
		l2.2-0.3c4.3-0.7,4.4-1.7,4.4-10V41.2c0-6.6-3-11.4-10.8-11.4c-4.4,0-8.2,1.8-9.8,4c-1.5,1.9-1.7,3.6-1.7,6.9v17.6
		c0,8.3,0.2,9.3,4.4,10l2.1,0.3c0.8,0.6,0.6,2.5-0.2,2.9c-3.1-0.2-6.4-0.3-10.5-0.3c-4.1,0-7.6,0.1-10.8,0.3c-0.8-0.3-1-2.3-0.2-2.9
		l2.4-0.3c4.3-0.6,4.4-1.7,4.4-10V38.2z"/>
	<path class="st0" d="M125.5,47.4c1.7-0.6,2-1.6,2-3.3l0.1-5.3c0.1-4.3-1.3-10-8.4-10c-3.2,0-7.1,1.6-7.4,5.2
		c-0.1,1.8-0.2,3.2-1.1,3.9c-1.7,1.4-4.8,2.2-6.6,2.2c-1,0-1.6-0.6-1.6-1.6c0-6,13-14.1,21.4-14.1c8.3,0,12.3,4.8,12,13.5l-0.7,20
		c-0.2,5.3,0.8,10,5.3,10c1.1,0,2.2-0.3,2.9-0.7c0.6-0.3,1.2-0.8,1.5-0.8c0.5,0,0.8,0.7,0.8,1.5c0,0.6-4,5.1-9.7,5.1
		c-2.8,0-5.5-1-7.5-3.6c-0.5-0.7-1.1-1.6-1.8-1.6c-0.8,0-2.2,1-4.5,2.3c-2.5,1.4-5.1,2.9-8.3,2.9c-3.3,0-6.1-0.9-8.1-2.6
		c-2.2-2-3.6-4.8-3.6-8.1c0-4.5,2.2-7.1,9.5-9.8L125.5,47.4z M118.4,67.6c2.3,0,5.9-1.7,7-2.9c1.4-1.4,1.4-3,1.5-5.4l0.2-6.8
		c0-1.3-0.5-1.5-1.2-1.5c-0.7,0-2.6,0.5-4.7,1.2c-6.8,2.3-10.1,4-10.1,8.5C111.2,62.7,112.5,67.6,118.4,67.6"/>
	<path class="st1" d="M167.3,23c-4.2,0-8.4,1.1-11.6,3.9c-1.4,1.2-2.9,3-3.6,4.7c-0.7,1.6-1.2,3.6-1.2,5.4c0,9.1,6.8,12.6,13.6,14.6
		c8.6,2.4,11.2,5.4,11.2,10.6c0,5.4-5.1,7.8-9.1,7.8c-6.1,0-7.7-2.9-10-7.1l-2.9-5.6c-0.2-0.6-0.6-0.8-1-0.7l-1.5,0.3
		c-0.5,0.1-0.8,0.3-0.7,0.9l2,10.9c0.1,0.6,0.1,1.3,0.7,1.6c1.4,1,6,3.3,11.6,3.3c9.8,0,17.4-5.9,17.5-15.2
		c-0.1-8.9-5.4-12.3-13.8-14.7c-5.6-1.6-11-2.9-11-9.6c0-4.9,4.5-7.6,8.9-7.6c4.5,0,6.7,2.3,8,4.5l3.9,5.3c0.3,0.6,0.6,0.7,1,0.6
		l1.4-0.5c0.6-0.2,0.8-0.6,0.8-1l-1.7-8.1c-0.1-0.7-0.3-1.3-2.1-2.1C174.5,23.9,170.9,23,167.3,23 M287.7,66.3
		c-0.3,0-0.9,0.5-1.5,0.8c-0.7,0.3-1.7,0.7-2.9,0.7c-4.5,0-5.5-4.7-5.3-10l0.7-20c0.3-8.6-3.7-13.5-12-13.5
		c-8.4,0-21.4,8.2-21.4,14.1c0,1,0.6,1.6,1.6,1.6c1.7,0,4.8-0.8,6.6-2.2c0.9-0.7,1-2.1,1.2-3.9c0.2-3.6,4.1-5.2,7.4-5.2
		c7.1,0,8.5,5.8,8.4,10l-0.1,5.3c0,1.7-0.2,2.8-2,3.3l-13.7,4.9c-7.4,2.6-9.5,5.3-9.5,9.8c0,3.2,1.4,6.1,3.6,8.1
		c2,1.7,4.7,2.6,8.1,2.6c3.2,0,5.7-1.5,8.3-2.9c2.3-1.3,3.7-2.3,4.5-2.3c0.7,0,1.4,0.9,1.8,1.6c2,2.5,4.7,3.6,7.5,3.6
		c5.6,0,9.7-4.5,9.7-5.1C288.6,66.9,288.2,66.3,287.7,66.3 M269.8,59.3c-0.1,2.4-0.1,4-1.5,5.4c-1.1,1.1-4.7,2.9-7,2.9
		c-5.9,0-7.2-4.9-7.2-6.9c0-4.5,3.3-6.2,10.1-8.5c2.1-0.7,4-1.2,4.7-1.2c0.7,0,1.2,0.2,1.2,1.5L269.8,59.3z M360.3,25.5
		c-2.5,0.2-5.3,0.3-7.5,0.3c-2.9,0-5.8-0.1-9.1-0.3c-0.8,0.3-1,2.2-0.1,2.8l2.9,0.5c1.4,0.2,2.1,0.8,2.1,1.5c0,0.8-0.2,2.3-1.1,4.9
		c-1.7,4.8-6.3,17-7.8,20.4c-0.8,1.8-1.4,3-1.6,3.2c-0.3-0.2-0.8-1.5-1.5-3.2c-1.3-3.1-7.5-17.7-8.7-21.5c-1.4-4-1.6-4.4,3-5.3
		l2.4-0.5c0.7-0.6,0.7-2.4-0.3-2.8c-3.9,0.2-7.4,0.3-10.9,0.3c-3,0-6.7-0.1-9.5-0.3c-0.9,0.3-1.1,2.1-0.3,2.8l1.8,0.5
		c2.5,0.6,4.3,1.5,5.3,4c0.6,1.5,0.5,3-1,6.7l-5.6,13.9c-1.4,3.3-2.3,5.3-2.6,5.5c0-0.2-1-2.3-2.1-4.9l-7.1-17.6
		c-1.3-3.1-1.8-5.3-1.8-6c0-0.7,0.9-1.4,2.5-1.6l2.6-0.5c0.8-0.6,0.7-2.3-0.2-2.8c-3.1,0.2-6.4,0.3-10,0.3c-3.5,0-6.7-0.1-10.2-0.3
		c-1,0.5-0.9,2.2-0.4,2.8l1.8,0.5c2.9,0.7,4.3,1.8,6.9,8.3l10.6,26c0.9,2.4,2.8,7.1,3.5,9.5c0.3,0.3,0.9,0.5,1.4,0.5
		c0.6,0,1-0.1,1.4-0.5c0.9-2.6,2.5-6.8,4.6-11.7l6-14.4c0.8-2.1,2.4-5.6,2.5-5.6c0.1,0,1.8,3.8,2.6,5.9l5.5,13.2
		c2,4.6,4,10.6,4.7,12.6c0.3,0.3,0.8,0.5,1.3,0.5c0.6,0,1-0.1,1.5-0.5c0.9-3,2.3-6.3,3.9-10.5c2.2-5.9,7.7-19.7,10.8-26.1
		c2.4-5.1,3.4-6.7,6.2-7.3l2.3-0.5C361.4,27.7,361.3,26,360.3,25.5"/>
	<path class="st1" d="M201.6,0.4l-3.7,0c-4,0-7.4-0.1-10.8-0.3c-0.8,0.3-1,2.4-0.2,2.9l2.4,0.3c4.1,0.6,4.4,3,4.4,11.3l0,0v43.8
		c0,8.3-0.1,9.6-4.4,10l-2.9,0.3c-0.8,0.6-0.6,2.5,0.2,2.9c3.7-0.2,7.1-0.3,11.3-0.3c4,0,7.4,0.1,10.8,0.3c0.8-0.3,1-2.4,0.2-2.9
		l-2.4-0.3c-4.1-0.6-4.4-1.7-4.4-10V39c0-4,0.4-4.6,2.4-6.3c2.1-1.7,5.1-3.1,9-3.1c7.4,0,10.9,4.9,10.9,12.3v16.4
		c0,8.3-0.1,9.3-4.4,10l-2.3,0.3c-0.8,0.6-0.6,2.5,0.2,2.9c3.1-0.2,6.6-0.3,10.7-0.3c4,0,7.4,0.1,11.5,0.3c0.8-0.3,1-2.3,0.2-2.9
		l-3.1-0.3c-4.1-0.5-4.4-1.7-4.4-10V39.1c0-8.1-3.9-14.8-14.8-14.8c-5.9,0-11.4,2.8-15.5,6c-0.3-0.2-0.5-1.1-0.5-2.2v-5.7l0-15.5
		l-0.1-6C202.2,0.3,201.6,0.4,201.6,0.4"/>
	<path class="st0" d="M91,95.5c-0.5-2.2-2.3-3.4-4.4-3.4c-3.8,0-5.3,3.1-5.3,6.2c0,3.1,1.6,6.2,5.3,6.2c2.6,0,4.3-2,4.6-4.5h1.3
		c-0.4,3.5-2.6,5.7-5.9,5.7c-4.5,0-6.7-3.5-6.7-7.4c0-3.9,2.2-7.4,6.7-7.4c2.7,0,5.3,1.6,5.7,4.6H91z"/>
	<path class="st0" d="M113.7,90.9c4.4,0,6.7,3.5,6.7,7.4c0,3.9-2.2,7.4-6.7,7.4c-4.5,0-6.7-3.5-6.7-7.4
		C107,94.5,109.2,90.9,113.7,90.9 M113.7,104.6c3.7,0,5.3-3.1,5.3-6.2c0-3.1-1.6-6.2-5.3-6.2c-3.8,0-5.3,3.1-5.3,6.2
		C108.3,101.4,109.9,104.6,113.7,104.6"/>
	<polygon class="st0" points="135.5,91.2 137,91.2 145.3,103.2 145.3,103.2 145.3,91.2 146.6,91.2 146.6,105.4 145.1,105.4 
		136.9,93.4 136.8,93.4 136.8,105.4 135.5,105.4 	"/>
	<polygon class="st0" points="161,91.2 172.3,91.2 172.3,92.4 167.3,92.4 167.3,105.4 166,105.4 166,92.4 161,92.4 	"/>
	<path class="st0" d="M186.7,91.2h6.5c2.3,0,4.3,1.1,4.3,3.7c0,1.8-0.9,3.3-2.8,3.6v0c1.9,0.2,2.4,1.5,2.5,3.2
		c0.1,1,0.1,2.9,0.7,3.6h-1.5c-0.3-0.6-0.3-1.6-0.4-2.2c-0.1-2-0.3-4.2-2.8-4.1H188v6.3h-1.4V91.2z M188,98h5c1.6,0,3.1-1,3.1-2.8
		c0-1.7-1-2.8-3.1-2.8h-5V98z"/>
	<path class="st0" d="M219.3,91.2h1.5l5.6,14.2h-1.5l-1.7-4.4h-6.5l-1.7,4.4h-1.5L219.3,91.2z M217.1,99.9h5.6l-2.7-7.3L217.1,99.9z
		"/>
	<path class="st0" d="M253.2,95.5c-0.5-2.2-2.3-3.4-4.4-3.4c-3.8,0-5.3,3.1-5.3,6.2c0,3.1,1.6,6.2,5.3,6.2c2.6,0,4.3-2,4.5-4.5h1.4
		c-0.4,3.5-2.6,5.7-5.9,5.7c-4.5,0-6.7-3.5-6.7-7.4c0-3.9,2.2-7.4,6.7-7.4c2.7,0,5.3,1.6,5.7,4.6H253.2z"/>
	<polygon class="st0" points="270.5,91.2 281.7,91.2 281.7,92.4 276.8,92.4 276.8,105.4 275.4,105.4 275.4,92.4 270.5,92.4 	"/>
	<rect x="23.6" y="97.4" class="st0" width="39.2" height="1"/>
	<rect x="297" y="97.4" class="st0" width="39.2" height="1"/>
	<path class="st0" d="M10.5,124.3c-0.3-0.4-0.6-0.8-1-1.1c-0.4-0.3-0.8-0.5-1.3-0.7c-0.5-0.2-1-0.2-1.5-0.2c-0.9,0-1.8,0.2-2.4,0.5
		c-0.7,0.4-1.2,0.8-1.7,1.4c-0.4,0.6-0.8,1.3-1,2c-0.2,0.7-0.3,1.5-0.3,2.3c0,0.8,0.1,1.5,0.3,2.3c0.2,0.8,0.5,1.4,1,2
		s1,1.1,1.7,1.4c0.7,0.4,1.5,0.5,2.4,0.5c0.7,0,1.3-0.1,1.8-0.4c0.5-0.2,1-0.6,1.4-1c0.4-0.4,0.7-0.9,0.9-1.4
		c0.2-0.6,0.4-1.1,0.5-1.8h1.4c-0.1,0.9-0.3,1.7-0.6,2.4c-0.3,0.7-0.7,1.3-1.2,1.8c-0.5,0.5-1.1,0.9-1.8,1.1
		c-0.7,0.3-1.5,0.4-2.3,0.4c-1.1,0-2.1-0.2-2.9-0.6c-0.8-0.4-1.6-1-2.1-1.6c-0.6-0.7-1-1.5-1.3-2.4c-0.3-0.9-0.4-1.8-0.4-2.8
		c0-1,0.1-1.9,0.4-2.8c0.3-0.9,0.7-1.7,1.3-2.4c0.6-0.7,1.3-1.2,2.1-1.6c0.8-0.4,1.8-0.6,2.9-0.6c0.7,0,1.3,0.1,2,0.3
		c0.6,0.2,1.2,0.5,1.8,0.9c0.5,0.4,1,0.9,1.3,1.4c0.4,0.6,0.6,1.2,0.7,2h-1.4C11,125.2,10.8,124.7,10.5,124.3"/>
	<path class="st0" d="M22.2,121.4v8.8c0,0.8,0.1,1.5,0.3,2.1c0.2,0.6,0.5,1.1,0.8,1.4c0.4,0.4,0.8,0.6,1.3,0.8
		c0.5,0.2,1.1,0.2,1.8,0.2c0.7,0,1.3-0.1,1.8-0.2c0.5-0.2,1-0.4,1.3-0.8c0.4-0.4,0.6-0.8,0.8-1.4c0.2-0.6,0.3-1.3,0.3-2.1v-8.8H32
		v9.1c0,0.7-0.1,1.4-0.3,2.1c-0.2,0.7-0.5,1.2-1,1.7c-0.4,0.5-1,0.9-1.7,1.2c-0.7,0.3-1.6,0.4-2.6,0.4c-1,0-1.8-0.1-2.5-0.4
		c-0.7-0.3-1.3-0.7-1.7-1.2c-0.4-0.5-0.8-1.1-1-1.7c-0.2-0.7-0.3-1.4-0.3-2.1v-9.1H22.2z"/>
	<path class="st0" d="M47.5,121.4c0.6,0,1.1,0.1,1.7,0.2c0.5,0.1,1,0.4,1.4,0.7c0.4,0.3,0.7,0.7,0.9,1.2c0.2,0.5,0.3,1,0.3,1.7
		c0,0.9-0.2,1.7-0.7,2.4c-0.5,0.7-1.2,1.1-2.1,1.3v0c0.5,0.1,0.9,0.2,1.2,0.4c0.3,0.2,0.6,0.4,0.8,0.7c0.2,0.3,0.3,0.6,0.4,1
		c0.1,0.4,0.1,0.8,0.2,1.2c0,0.2,0,0.5,0,0.9c0,0.3,0,0.7,0.1,1.1s0.1,0.7,0.2,1c0.1,0.3,0.2,0.6,0.4,0.7h-1.5
		c-0.1-0.1-0.1-0.3-0.2-0.5c0-0.2-0.1-0.4-0.1-0.6s0-0.4,0-0.6s0-0.4,0-0.5c0-0.5-0.1-1-0.1-1.5c-0.1-0.5-0.2-0.9-0.4-1.3
		c-0.2-0.4-0.5-0.7-0.8-0.9c-0.4-0.2-0.9-0.3-1.5-0.3h-5.2v6.3H41v-14.3H47.5z M47.4,128.2c0.4,0,0.8-0.1,1.2-0.2
		c0.4-0.1,0.7-0.3,1-0.6c0.3-0.2,0.5-0.5,0.7-0.9c0.2-0.3,0.2-0.7,0.2-1.2c0-0.9-0.3-1.6-0.8-2.1c-0.5-0.5-1.3-0.8-2.3-0.8h-5.1v5.6
		H47.4z"/>
	<polygon class="st0" points="70.5,121.4 70.5,122.6 65.5,122.6 65.5,135.7 64.1,135.7 64.1,122.6 59.2,122.6 59.2,121.4 	"/>
	<path class="st0" d="M82.4,121.4l5.6,14.3h-1.5l-1.7-4.4h-6.5l-1.7,4.4h-1.4l5.7-14.3H82.4z M84.4,130.1l-2.8-7.3l-2.9,7.3H84.4z"
		/>
	<rect x="95.7" y="121.4" class="st0" width="1.4" height="14.3"/>
	<polygon class="st0" points="107.8,121.4 116.1,133.5 116.1,133.5 116.1,121.4 117.5,121.4 117.5,135.7 116,135.7 107.7,123.6 
		107.6,123.6 107.6,135.7 106.3,135.7 106.3,121.4 	"/>
	<polygon class="st0" points="140.4,121.4 145.1,134 150.1,121.4 152.1,121.4 152.1,135.7 150.7,135.7 150.7,123.4 150.7,123.4 
		145.8,135.7 144.5,135.7 139.8,123.4 139.8,123.4 139.8,135.7 138.4,135.7 138.4,121.4 	"/>
	<path class="st0" d="M166.8,121.4l5.6,14.3H171l-1.7-4.4h-6.5l-1.7,4.4h-1.4l5.7-14.3H166.8z M168.8,130.1l-2.8-7.3l-2.9,7.3H168.8
		z"/>
	<polygon class="st0" points="181.5,121.4 189.8,133.5 189.8,133.5 189.8,121.4 191.2,121.4 191.2,135.7 189.7,135.7 181.4,123.6 
		181.3,123.6 181.3,135.7 180,135.7 180,121.4 	"/>
	<path class="st0" d="M201.5,121.4v8.8c0,0.8,0.1,1.5,0.3,2.1c0.2,0.6,0.5,1.1,0.8,1.4c0.4,0.4,0.8,0.6,1.3,0.8
		c0.5,0.2,1.1,0.2,1.8,0.2c0.7,0,1.3-0.1,1.8-0.2c0.5-0.2,1-0.4,1.3-0.8c0.4-0.4,0.6-0.8,0.8-1.4c0.2-0.6,0.3-1.3,0.3-2.1v-8.8h1.4
		v9.1c0,0.7-0.1,1.4-0.3,2.1c-0.2,0.7-0.5,1.2-1,1.7c-0.4,0.5-1,0.9-1.7,1.2c-0.7,0.3-1.6,0.4-2.6,0.4c-1,0-1.8-0.1-2.5-0.4
		c-0.7-0.3-1.3-0.7-1.7-1.2c-0.4-0.5-0.8-1.1-1-1.7c-0.2-0.7-0.3-1.4-0.3-2.1v-9.1H201.5z"/>
	<polygon class="st0" points="229.3,121.4 229.3,122.6 221.6,122.6 221.6,127.8 228.5,127.8 228.5,128.9 221.6,128.9 221.6,135.7 
		220.3,135.7 220.3,121.4 	"/>
	<path class="st0" d="M241.9,121.4l5.6,14.3H246l-1.7-4.4h-6.5l-1.7,4.4h-1.4l5.7-14.3H241.9z M243.8,130.1l-2.8-7.3l-2.9,7.3H243.8
		z"/>
	<path class="st0" d="M264.9,124.3c-0.3-0.4-0.6-0.8-1-1.1c-0.4-0.3-0.8-0.5-1.3-0.7c-0.5-0.2-1-0.2-1.5-0.2c-0.9,0-1.8,0.2-2.4,0.5
		c-0.7,0.4-1.2,0.8-1.7,1.4c-0.4,0.6-0.8,1.3-1,2c-0.2,0.7-0.3,1.5-0.3,2.3c0,0.8,0.1,1.5,0.3,2.3c0.2,0.8,0.5,1.4,1,2
		c0.4,0.6,1,1.1,1.7,1.4c0.7,0.4,1.5,0.5,2.4,0.5c0.7,0,1.3-0.1,1.8-0.4c0.5-0.2,1-0.6,1.4-1c0.4-0.4,0.7-0.9,0.9-1.4
		c0.2-0.6,0.4-1.1,0.5-1.8h1.4c-0.1,0.9-0.3,1.7-0.6,2.4c-0.3,0.7-0.7,1.3-1.2,1.8c-0.5,0.5-1.1,0.9-1.8,1.1
		c-0.7,0.3-1.5,0.4-2.3,0.4c-1.1,0-2.1-0.2-3-0.6c-0.8-0.4-1.5-1-2.1-1.6c-0.6-0.7-1-1.5-1.3-2.4c-0.3-0.9-0.4-1.8-0.4-2.8
		c0-1,0.1-1.9,0.4-2.8c0.3-0.9,0.7-1.7,1.3-2.4c0.6-0.7,1.3-1.2,2.1-1.6c0.8-0.4,1.8-0.6,3-0.6c0.7,0,1.3,0.1,2,0.3
		c0.6,0.2,1.2,0.5,1.8,0.9c0.5,0.4,1,0.9,1.3,1.4c0.4,0.6,0.6,1.2,0.7,2h-1.4C265.4,125.2,265.2,124.7,264.9,124.3"/>
	<polygon class="st0" points="285.2,121.4 285.2,122.6 280.2,122.6 280.2,135.7 278.8,135.7 278.8,122.6 273.9,122.6 273.9,121.4 	
		"/>
	<path class="st0" d="M294,121.4v8.8c0,0.8,0.1,1.5,0.3,2.1c0.2,0.6,0.5,1.1,0.8,1.4c0.4,0.4,0.8,0.6,1.3,0.8
		c0.5,0.2,1.1,0.2,1.8,0.2c0.7,0,1.3-0.1,1.8-0.2c0.5-0.2,1-0.4,1.3-0.8c0.4-0.4,0.6-0.8,0.8-1.4c0.2-0.6,0.3-1.3,0.3-2.1v-8.8h1.4
		v9.1c0,0.7-0.1,1.4-0.3,2.1c-0.2,0.7-0.5,1.2-1,1.7c-0.4,0.5-1,0.9-1.7,1.2c-0.7,0.3-1.5,0.4-2.5,0.4c-1,0-1.8-0.1-2.5-0.4
		c-0.7-0.3-1.3-0.7-1.7-1.2c-0.4-0.5-0.8-1.1-1-1.7c-0.2-0.7-0.3-1.4-0.3-2.1v-9.1H294z"/>
	<path class="st0" d="M319.3,121.4c0.6,0,1.1,0.1,1.7,0.2c0.5,0.1,1,0.4,1.4,0.7c0.4,0.3,0.7,0.7,0.9,1.2c0.2,0.5,0.3,1,0.3,1.7
		c0,0.9-0.2,1.7-0.7,2.4c-0.5,0.7-1.2,1.1-2.1,1.3v0c0.5,0.1,0.9,0.2,1.2,0.4c0.3,0.2,0.6,0.4,0.8,0.7c0.2,0.3,0.3,0.6,0.4,1
		s0.1,0.8,0.2,1.2c0,0.2,0,0.5,0,0.9c0,0.3,0,0.7,0.1,1.1c0,0.4,0.1,0.7,0.2,1c0.1,0.3,0.2,0.6,0.4,0.7h-1.5
		c-0.1-0.1-0.1-0.3-0.2-0.5c0-0.2-0.1-0.4-0.1-0.6c0-0.2,0-0.4-0.1-0.6s0-0.4,0-0.5c0-0.5-0.1-1-0.1-1.5c-0.1-0.5-0.2-0.9-0.4-1.3
		c-0.2-0.4-0.5-0.7-0.8-0.9c-0.4-0.2-0.9-0.3-1.5-0.3h-5.2v6.3h-1.4v-14.3H319.3z M319.2,128.2c0.4,0,0.8-0.1,1.2-0.2
		c0.4-0.1,0.7-0.3,1-0.6c0.3-0.2,0.5-0.5,0.7-0.9c0.2-0.3,0.2-0.7,0.2-1.2c0-0.9-0.3-1.6-0.8-2.1c-0.5-0.5-1.3-0.8-2.3-0.8h-5.1v5.6
		H319.2z"/>
	<polygon class="st0" points="342.2,121.4 342.2,122.6 333.7,122.6 333.7,127.8 341.6,127.8 341.6,128.9 333.7,128.9 333.7,134.6 
		342.3,134.6 342.3,135.7 332.3,135.7 332.3,121.4 	"/>
	<path class="st0" d="M357,121.4c0.6,0,1.1,0.1,1.7,0.2c0.5,0.1,1,0.4,1.4,0.7c0.4,0.3,0.7,0.7,0.9,1.2c0.2,0.5,0.3,1,0.3,1.7
		c0,0.9-0.2,1.7-0.7,2.4c-0.5,0.7-1.2,1.1-2.1,1.3v0c0.5,0.1,0.9,0.2,1.2,0.4c0.3,0.2,0.6,0.4,0.8,0.7c0.2,0.3,0.3,0.6,0.4,1
		s0.1,0.8,0.2,1.2c0,0.2,0,0.5,0,0.9c0,0.3,0,0.7,0.1,1.1c0,0.4,0.1,0.7,0.2,1c0.1,0.3,0.2,0.6,0.4,0.7h-1.5
		c-0.1-0.1-0.1-0.3-0.2-0.5c0-0.2-0.1-0.4-0.1-0.6c0-0.2,0-0.4-0.1-0.6s0-0.4,0-0.5c0-0.5-0.1-1-0.1-1.5c-0.1-0.5-0.2-0.9-0.4-1.3
		c-0.2-0.4-0.5-0.7-0.8-0.9c-0.4-0.2-0.9-0.3-1.5-0.3h-5.2v6.3h-1.4v-14.3H357z M356.9,128.2c0.4,0,0.8-0.1,1.2-0.2
		c0.4-0.1,0.7-0.3,1-0.6c0.3-0.2,0.5-0.5,0.7-0.9c0.2-0.3,0.2-0.7,0.2-1.2c0-0.9-0.3-1.6-0.8-2.1c-0.5-0.5-1.3-0.8-2.3-0.8h-5.1v5.6
		H356.9z"/>
</g>
</svg>
