<?xml version="1.0" encoding="utf-8"?>
<!-- Generator: Adobe Illustrator 20.0.0, SVG Export Plug-In . SVG Version: 6.00 Build 0)  -->
<svg version="1.1" id="Layer_1" xmlns="http://www.w3.org/2000/svg" xmlns:xlink="http://www.w3.org/1999/xlink" x="0px" y="0px"
	 viewBox="0 0 122.2 122.4" style="enable-background:new 0 0 122.2 122.4;" xml:space="preserve">
<style type="text/css">
	.st0{fill:#E7E04F;}
	.st1{fill:none;stroke:#E7E04F;stroke-width:8;stroke-miterlimit:10;}
</style>
<g>
	<path class="st0" d="M-137.5,5.8l55.4,55.4l-55.4,55.4l-55.4-55.4L-137.5,5.8 M-137.5,0.1l-61,61l61,61l61-61L-137.5,0.1
		L-137.5,0.1z"/>
</g>
<polyline class="st1" points="-137.5,101.2 -177.5,61.2 -137.5,21.1 "/>
<g>
	<path class="st0" d="M61,5.8l55.4,55.4L61,116.6L5.7,61.2L61,5.8 M61,0.1l-61,61l61,61l61-61L61,0.1L61,0.1z"/>
</g>
<polyline class="st1" points="61,21.1 101.1,61.2 61,101.2 "/>
</svg>
